{
    "swagger": "2.0",
    "info": {
        "description": "This is a sample server celler server.",
        "title": "Swagger Example API",
        "contact": {},
        "version": "1.0"
    },
    "paths": {
        "/branch": {
            "post": {
                "description": "Create a new branch",
                "consumes": [
                    "application/json"
                ],
                "produces": [
                    "application/json"
                ],
                "tags": [
                    "branch"
                ],
                "summary": "Create a new branch",
                "parameters": [
                    {
                        "description": "branch",
                        "name": "branch",
                        "in": "body",
                        "schema": {
                            "$ref": "#/definitions/models.CreateBranch"
                        }
                    }
                ],
                "responses": {
                    "201": {
                        "description": "Created",
                        "schema": {
                            "$ref": "#/definitions/models.Branch"
                        }
                    },
                    "400": {
                        "description": "Bad Request",
                        "schema": {
                            "$ref": "#/definitions/models.Response"
                        }
                    },
                    "404": {
                        "description": "Not Found",
                        "schema": {
                            "$ref": "#/definitions/models.Response"
                        }
                    },
                    "500": {
                        "description": "Internal Server Error",
                        "schema": {
                            "$ref": "#/definitions/models.Response"
                        }
                    }
                }
            }
        },
        "/branch/{id}": {
            "get": {
                "description": "get branch by id",
                "consumes": [
                    "application/json"
                ],
                "produces": [
                    "application/json"
                ],
                "tags": [
                    "branch"
                ],
                "summary": "Get branch by id",
                "parameters": [
                    {
                        "type": "string",
                        "description": "branch_id",
                        "name": "id",
                        "in": "path",
                        "required": true
                    }
                ],
                "responses": {
                    "200": {
                        "description": "OK",
                        "schema": {
                            "$ref": "#/definitions/models.Branch"
                        }
                    },
                    "400": {
                        "description": "Bad Request",
                        "schema": {
                            "$ref": "#/definitions/models.Response"
                        }
                    },
                    "404": {
                        "description": "Not Found",
                        "schema": {
                            "$ref": "#/definitions/models.Response"
                        }
                    },
                    "500": {
                        "description": "Internal Server Error",
                        "schema": {
                            "$ref": "#/definitions/models.Response"
                        }
                    }
                }
            },
            "put": {
                "description": "update branch",
                "consumes": [
                    "application/json"
                ],
                "produces": [
                    "application/json"
                ],
                "tags": [
                    "branch"
                ],
                "summary": "Update branch",
                "parameters": [
                    {
                        "type": "string",
                        "description": "branch_id",
                        "name": "id",
                        "in": "path",
                        "required": true
                    },
                    {
                        "description": "branch",
                        "name": "branch",
                        "in": "body",
                        "required": true,
                        "schema": {
                            "$ref": "#/definitions/models.Branch"
                        }
                    }
                ],
                "responses": {
                    "200": {
                        "description": "OK",
                        "schema": {
                            "$ref": "#/definitions/models.Branch"
                        }
                    },
                    "400": {
                        "description": "Bad Request",
                        "schema": {
                            "$ref": "#/definitions/models.Response"
                        }
                    },
                    "404": {
                        "description": "Not Found",
                        "schema": {
                            "$ref": "#/definitions/models.Response"
                        }
                    },
                    "500": {
                        "description": "Internal Server Error",
                        "schema": {
                            "$ref": "#/definitions/models.Response"
                        }
                    }
                }
            },
            "delete": {
                "description": "delete branch",
                "consumes": [
                    "application/json"
                ],
                "produces": [
                    "application/json"
                ],
                "tags": [
                    "branch"
                ],
                "summary": "Delete branch",
                "parameters": [
                    {
                        "type": "string",
                        "description": "branch_id",
                        "name": "id",
                        "in": "path",
                        "required": true
                    }
                ],
                "responses": {
                    "200": {
                        "description": "OK",
                        "schema": {
                            "$ref": "#/definitions/models.Response"
                        }
                    },
                    "400": {
                        "description": "Bad Request",
                        "schema": {
                            "$ref": "#/definitions/models.Response"
                        }
                    },
                    "404": {
                        "description": "Not Found",
                        "schema": {
                            "$ref": "#/definitions/models.Response"
                        }
                    },
                    "500": {
                        "description": "Internal Server Error",
                        "schema": {
                            "$ref": "#/definitions/models.Response"
                        }
                    }
                }
            }
        },
        "/branches": {
            "get": {
                "description": "get branch list",
                "consumes": [
                    "application/json"
                ],
                "produces": [
                    "application/json"
                ],
                "tags": [
                    "branch"
                ],
                "summary": "Get branch list",
                "parameters": [
                    {
                        "type": "string",
                        "description": "page",
                        "name": "page",
                        "in": "query"
                    },
                    {
                        "type": "string",
                        "description": "limit",
                        "name": "limit",
                        "in": "query"
                    },
                    {
                        "type": "string",
                        "description": "search",
                        "name": "search",
                        "in": "query"
                    }
                ],
                "responses": {
                    "201": {
                        "description": "Created",
                        "schema": {
                            "$ref": "#/definitions/models.BranchResponse"
                        }
                    },
                    "400": {
                        "description": "Bad Request",
                        "schema": {
                            "$ref": "#/definitions/models.Response"
                        }
                    },
                    "404": {
                        "description": "Not Found",
                        "schema": {
                            "$ref": "#/definitions/models.Response"
                        }
                    },
                    "500": {
                        "description": "Internal Server Error",
                        "schema": {
                            "$ref": "#/definitions/models.Response"
                        }
                    }
                }
            }
        },
        "/client": {
            "post": {
                "description": "Create a new client",
                "consumes": [
                    "application/json"
                ],
                "produces": [
                    "application/json"
                ],
                "tags": [
                    "client"
                ],
                "summary": "Create a new client",
                "parameters": [
                    {
                        "description": "client",
                        "name": "client",
                        "in": "body",
                        "schema": {
                            "$ref": "#/definitions/models.CreateClient"
                        }
                    }
                ],
                "responses": {
                    "201": {
                        "description": "Created",
                        "schema": {
                            "$ref": "#/definitions/models.Client"
                        }
                    },
                    "400": {
                        "description": "Bad Request",
                        "schema": {
                            "$ref": "#/definitions/models.Response"
                        }
                    },
                    "404": {
                        "description": "Not Found",
                        "schema": {
                            "$ref": "#/definitions/models.Response"
                        }
                    },
                    "500": {
                        "description": "Internal Server Error",
                        "schema": {
                            "$ref": "#/definitions/models.Response"
                        }
                    }
                }
            }
        },
        "/client/{id}": {
            "get": {
                "description": "get client by id",
                "consumes": [
                    "application/json"
                ],
                "produces": [
                    "application/json"
                ],
                "tags": [
                    "client"
                ],
                "summary": "Get client by id",
                "parameters": [
                    {
                        "type": "string",
                        "description": "client_id",
                        "name": "id",
                        "in": "path",
                        "required": true
                    }
                ],
                "responses": {
                    "200": {
                        "description": "OK",
                        "schema": {
                            "$ref": "#/definitions/models.Client"
                        }
                    },
                    "400": {
                        "description": "Bad Request",
                        "schema": {
                            "$ref": "#/definitions/models.Response"
                        }
                    },
                    "404": {
                        "description": "Not Found",
                        "schema": {
                            "$ref": "#/definitions/models.Response"
                        }
                    },
                    "500": {
                        "description": "Internal Server Error",
                        "schema": {
                            "$ref": "#/definitions/models.Response"
                        }
                    }
                }
            },
            "put": {
                "description": "update client",
                "consumes": [
                    "application/json"
                ],
                "produces": [
                    "application/json"
                ],
                "tags": [
                    "client"
                ],
                "summary": "Update client",
                "parameters": [
                    {
                        "type": "string",
                        "description": "client_id",
                        "name": "id",
                        "in": "path",
                        "required": true
                    },
                    {
                        "description": "client",
                        "name": "client",
                        "in": "body",
                        "required": true,
                        "schema": {
                            "$ref": "#/definitions/models.Client"
                        }
                    }
                ],
                "responses": {
                    "200": {
                        "description": "OK",
                        "schema": {
                            "$ref": "#/definitions/models.Client"
                        }
                    },
                    "400": {
                        "description": "Bad Request",
                        "schema": {
                            "$ref": "#/definitions/models.Response"
                        }
                    },
                    "404": {
                        "description": "Not Found",
                        "schema": {
                            "$ref": "#/definitions/models.Response"
                        }
                    },
                    "500": {
                        "description": "Internal Server Error",
                        "schema": {
                            "$ref": "#/definitions/models.Response"
                        }
                    }
                }
            },
            "delete": {
                "description": "delete client",
                "consumes": [
                    "application/json"
                ],
                "produces": [
                    "application/json"
                ],
                "tags": [
                    "client"
                ],
                "summary": "Delete client",
                "parameters": [
                    {
                        "type": "string",
                        "description": "client_id",
                        "name": "id",
                        "in": "path",
                        "required": true
                    }
                ],
                "responses": {
                    "200": {
                        "description": "OK",
                        "schema": {
                            "$ref": "#/definitions/models.Response"
                        }
                    },
                    "400": {
                        "description": "Bad Request",
                        "schema": {
                            "$ref": "#/definitions/models.Response"
                        }
                    },
                    "404": {
                        "description": "Not Found",
                        "schema": {
                            "$ref": "#/definitions/models.Response"
                        }
                    },
                    "500": {
                        "description": "Internal Server Error",
                        "schema": {
                            "$ref": "#/definitions/models.Response"
                        }
                    }
                }
            }
        },
        "/clients": {
            "get": {
                "description": "get client list",
                "consumes": [
                    "application/json"
                ],
                "produces": [
                    "application/json"
                ],
                "tags": [
                    "client"
                ],
                "summary": "Get client list",
                "parameters": [
                    {
                        "type": "string",
                        "description": "page",
                        "name": "page",
                        "in": "query"
                    },
                    {
                        "type": "string",
                        "description": "limit",
                        "name": "limit",
                        "in": "query"
                    },
                    {
                        "type": "string",
                        "description": "search",
                        "name": "search",
                        "in": "query"
                    }
                ],
                "responses": {
                    "201": {
                        "description": "Created",
                        "schema": {
                            "$ref": "#/definitions/models.ClientResponse"
                        }
                    },
                    "400": {
                        "description": "Bad Request",
                        "schema": {
                            "$ref": "#/definitions/models.Response"
                        }
                    },
                    "404": {
                        "description": "Not Found",
                        "schema": {
                            "$ref": "#/definitions/models.Response"
                        }
                    },
                    "500": {
                        "description": "Internal Server Error",
                        "schema": {
                            "$ref": "#/definitions/models.Response"
                        }
                    }
                }
            }
        }
    },
    "definitions": {
        "models.Branch": {
            "type": "object",
            "properties": {
                "address": {
                    "type": "string"
                },
                "created_at": {
                    "type": "string"
                },
                "deleted_at": {
                    "type": "integer"
                },
                "delivery_tariff": {
                    "type": "string"
                },
                "destination": {
                    "type": "string"
                },
                "id": {
                    "type": "string"
                },
                "name": {
                    "type": "string"
                },
                "phone": {
                    "type": "string"
                },
                "status": {
                    "type": "boolean"
                },
                "updated_at": {
                    "type": "string"
                },
                "work_hour": {
                    "type": "string"
                }
            }
        },
        "models.BranchResponse": {
            "type": "object",
            "properties": {
                "branches": {
                    "type": "array",
                    "items": {
                        "$ref": "#/definitions/models.Branch"
                    }
                },
                "count": {
                    "type": "integer"
                }
            }
        },
        "models.Client": {
            "type": "object",
            "properties": {
                "created_at": {
                    "type": "string"
                },
                "date_of_birth": {
                    "type": "string"
                },
                "deleted_at": {
                    "type": "integer"
                },
                "discount_amount": {
                    "type": "string"
                },
                "discount_type": {
                    "type": "string"
                },
                "first_name": {
                    "type": "string"
                },
                "id": {
                    "type": "string"
                },
                "last_name": {
                    "type": "string"
                },
                "last_ordered_date": {
                    "type": "string"
                },
                "phone": {
                    "type": "string"
                },
                "total_orders_count": {
                    "type": "string"
                },
                "total_orders_sum": {
                    "type": "string"
                },
                "updated_at": {
                    "type": "string"
                }
            }
        },
        "models.ClientResponse": {
            "type": "object",
            "properties": {
                "clients": {
                    "type": "array",
                    "items": {
                        "$ref": "#/definitions/models.Client"
                    }
                },
                "count": {
                    "type": "integer"
                }
            }
        },
        "models.CreateBranch": {
            "type": "object",
            "properties": {
                "address": {
                    "type": "string"
                },
                "delivery_tariff": {
                    "type": "string"
                },
                "destination": {
                    "type": "string"
                },
                "phone": {
                    "type": "string"
                },
                "status": {
                    "type": "boolean"
                },
                "work_hour": {
                    "type": "string"
                }
            }
        },
        "models.CreateClient": {
            "type": "object",
            "properties": {
                "date_of_birth": {
                    "type": "string"
                },
                "first_name": {
                    "type": "string"
                },
                "last_name": {
                    "type": "string"
                },
                "phone": {
                    "type": "string"
                }
            }
        },
        "models.Response": {
            "type": "object",
            "properties": {
                "data": {},
                "description": {
                    "type": "string"
                },
                "statusCode": {
                    "type": "integer"
                }
            }
        }
    },
    "securityDefinitions": {
        "ApiKeyAuth": {
            "type": "apiKey",
            "name": "Authorization",
            "in": "header"
        }
    }
}